<?xml version="1.0" encoding="utf-8"?>
<!-- Generator: Adobe Illustrator 25.3.1, SVG Export Plug-In . SVG Version: 6.00 Build 0)  -->
<svg version="1.1" id="Layer_1" xmlns="http://www.w3.org/2000/svg" xmlns:xlink="http://www.w3.org/1999/xlink" x="0px" y="0px"
	 width="180px" height="104px" viewBox="0 0 180 104" style="enable-background:new 0 0 180 104;" xml:space="preserve">
<style type="text/css">
	.st0{fill:#FFFFFF;}
</style>
<g>
	<polygon class="st0" points="39.2,61.8 70,31 39.2,31 	"/>
	<polygon class="st0" points="100.7,61.8 100.7,46.3 100.7,31 85.4,46.4 70,31 70,61.8 	"/>
	<polygon class="st0" points="116.1,61.7 146.9,30.9 116.1,30.9 100.7,46.3 116.1,46.3 	"/>
	<rect x="39.2" y="66.2" class="st0" width="1.5" height="6.7"/>
	<path class="st0" d="M44.5,67.9c-0.6,0-1.1,0.2-1.5,0.8h0v-0.6h-1.2v4.9h1.3v-2.6c0-1,0.2-1.4,1-1.4c0.6,0,0.8,0.3,0.8,1.2v2.8h1.3
		v-3C46.3,68.8,46,67.9,44.5,67.9z"/>
	<path class="st0" d="M50.5,70.1c-0.3-0.1-0.8-0.2-1.1-0.3s-1-0.2-1-0.6c0-0.4,0.4-0.5,0.7-0.5c0.4,0,0.9,0.1,0.9,0.7h1.3
		c-0.1-1.2-1.1-1.6-2.2-1.6c-1.1,0-2.1,0.3-2.1,1.6c0,0.8,0.7,1.1,1.6,1.3c0.5,0.1,0.8,0.2,1.1,0.3c0.2,0.1,0.4,0.2,0.4,0.5
		c0,0.5-0.6,0.6-0.9,0.6c-0.4,0-1-0.2-1-0.8H47c0,1.2,1.1,1.7,2.3,1.7c1.6,0,2.2-0.7,2.2-1.7C51.5,70.7,51.1,70.3,50.5,70.1z"/>
	<path class="st0" d="M53.8,66.5h-1.3V68h-0.8v0.9h0.8v2.9c0,1,0.7,1.2,1.6,1.2c0.2,0,0.5,0,0.8,0v-1c-0.8,0.1-1,0-1-0.5v-2.4h1V68
		v0h-1V66.5z"/>
	<path class="st0" d="M59.6,66.5h-1.3V68h-0.8v0.9h0.8v2.9c0,1,0.7,1.2,1.6,1.2c0.2,0,0.5,0,0.8,0v-1c-0.8,0.1-1,0-1-0.5v-2.4h1V68
		v0h-1V66.5z"/>
	<path class="st0" d="M68.3,66.5H67V68h-0.8v0.9H67v2.9c0,1,0.7,1.2,1.6,1.2c0.2,0,0.5,0,0.8,0v-1c-0.8,0.1-1,0-1-0.5v-2.4h1V68v0
		h-1V66.5z"/>
	<rect x="55.6" y="66.2" class="st0" width="1.3" height="1.1"/>
	<rect x="55.6" y="68" class="st0" width="1.3" height="4.9"/>
	<path class="st0" d="M64.3,70.6c0,0.9-0.2,1.4-1,1.4c-0.7,0-0.8-0.4-0.8-1.2V68h-1.3v3c0,1.4,0.6,2,1.8,2c0.6,0,1.2-0.2,1.5-0.8h0
		v0.6h1.2V68h-1.3V70.6z"/>
	<path class="st0" d="M85.9,67.9c-0.6,0-1.1,0.2-1.5,0.8h0v-0.6h-1.2v4.9h1.3v-2.6c0-1,0.2-1.4,1-1.4c0.6,0,0.8,0.3,0.8,1.2v2.8h1.3
		v-3C87.7,68.8,87.4,67.9,85.9,67.9z"/>
	<path class="st0" d="M97.2,70.1c-0.3-0.1-0.8-0.2-1.1-0.3s-1-0.2-1-0.6c0-0.4,0.4-0.5,0.7-0.5c0.4,0,0.9,0.1,0.9,0.7h1.3
		c-0.1-1.2-1.1-1.6-2.2-1.6c-1.1,0-2.1,0.3-2.1,1.6c0,0.8,0.7,1.1,1.6,1.3c0.5,0.1,0.8,0.2,1.1,0.3c0.2,0.1,0.4,0.2,0.4,0.5
		c0,0.5-0.6,0.6-0.9,0.6c-0.4,0-1-0.2-1-0.8h-1.3c0,1.2,1.1,1.7,2.3,1.7c1.6,0,2.2-0.7,2.2-1.7C98.2,70.7,97.8,70.3,97.2,70.1z"/>
	<polygon class="st0" points="76.2,70.8 74.6,66.2 72.5,66.2 72.5,72.9 73.9,72.9 73.9,68.2 75.6,72.9 76.7,72.9 78.4,68.1
		78.4,72.9 79.8,72.9 79.8,66.2 77.7,66.2 	"/>
	<rect x="80.9" y="68" class="st0" width="1.3" height="4.9"/>
	<rect x="80.9" y="66.2" class="st0" width="1.3" height="1.1"/>
	<path class="st0" d="M90.8,67.9c-1.4,0-2.5,1-2.5,2.6c0,1.3,0.8,2.6,2.5,2.6c1.2,0,1.9-0.5,2.3-1.6H92c-0.1,0.3-0.5,0.6-1.1,0.6
		c-0.7,0-1.2-0.3-1.2-1.3h3.5C93.3,69.2,92.5,67.9,90.8,67.9z M89.7,69.9c0-0.6,0.4-1,1.1-1c0.7,0,1,0.4,1.1,1H89.7z"/>
	<rect x="99.6" y="69.8" class="st0" width="2.8" height="1.1"/>
	<polygon class="st0" points="107.7,66.2 102.2,66.2 102.2,67.4 104.2,67.4 104.2,72.9 105.7,72.9 105.7,67.4 107.7,67.4 	"/>
	<rect x="112.6" y="66.2" class="st0" width="1.3" height="6.7"/>
	<path class="st0" d="M122.6,72c-0.8,0-1.1-0.8-1.1-1.5c0-0.9,0.3-1.6,1.1-1.6c0.5,0,0.9,0.3,1,0.9h1.3c-0.1-1.3-1.1-1.9-2.3-1.9
		c-1.6,0-2.5,1.1-2.5,2.6c0,1.4,1,2.5,2.5,2.5c1.3,0,2.2-0.7,2.4-2h-1.3C123.6,71.5,123.3,72,122.6,72z"/>
	<path class="st0" d="M127.9,67.9c-1.6,0-2.5,1-2.5,2.6c0,1.5,0.9,2.6,2.5,2.6c1.6,0,2.5-1.1,2.5-2.6
		C130.4,68.8,129.4,67.9,127.9,67.9z M127.9,72c-0.9,0-1.2-0.7-1.2-1.6c0-1.2,0.6-1.6,1.2-1.6c0.7,0,1.2,0.5,1.2,1.6
		C129.1,71.4,128.7,72,127.9,72z"/>
	<path class="st0" d="M136.8,67.9c-0.7,0-1.2,0.3-1.5,0.8c-0.2-0.5-0.7-0.8-1.4-0.8c-0.6,0-1.1,0.3-1.5,0.8V68v-0.1h-1.1v4.9h1.3V70
		c0-0.9,0.6-1.1,0.9-1.1c0.8,0,0.8,0.6,0.8,1.2v2.7h1.3v-2.7c0-0.6,0.1-1.2,0.9-1.2c0.8,0,0.8,0.6,0.8,1.2v2.8h1.3v-3.3
		C138.6,68.3,137.8,67.9,136.8,67.9z"/>
	<path class="st0" d="M119.6,70.9c0-0.4,0-0.8-0.1-1.1s-0.2-0.6-0.4-0.9c-0.2-0.2-0.5-0.4-0.8-0.6c-0.3-0.1-0.7-0.2-1.1-0.2
		c-0.4,0-0.7,0.1-1,0.2c-0.3,0.1-0.6,0.3-0.8,0.5c-0.2,0.2-0.4,0.5-0.5,0.8c-0.1,0.3-0.2,0.6-0.2,1c0,0.3,0.1,0.7,0.2,1
		c0.1,0.3,0.3,0.6,0.5,0.8c0.2,0.2,0.5,0.4,0.8,0.5c0.3,0.1,0.6,0.2,1,0.2c0.5,0,1-0.1,1.4-0.4c0.4-0.3,0.7-0.7,0.9-1.3h-1.2
		c-0.1,0.1-0.2,0.3-0.4,0.4c-0.2,0.1-0.4,0.2-0.7,0.2c-0.4,0-0.7-0.1-0.9-0.3s-0.3-0.5-0.2-0.8H119.6z M116,69.9
		c0-0.1,0.1-0.2,0.1-0.3c0.1-0.1,0.1-0.2,0.2-0.3c0-0.1,0.2-0.2,0.3-0.3c0.1-0.1,0.3-0.1,0.5-0.1c0.3,0,0.5,0.1,0.7,0.3
		c0.2,0.1,0.3,0.4,0.4,0.7H116z"/>
	<polygon class="st0" points="117.2,67.2 118.7,65.5 117.3,65.5 116.3,67.2 	"/>
	<path class="st0" d="M112,70.9c0-0.4,0-0.8-0.1-1.1c-0.1-0.3-0.2-0.6-0.4-0.9c-0.2-0.2-0.5-0.4-0.8-0.6c-0.3-0.1-0.7-0.2-1.1-0.2
		c-0.4,0-0.7,0.1-1,0.2c-0.3,0.1-0.6,0.3-0.8,0.5c-0.2,0.2-0.4,0.5-0.5,0.8s-0.2,0.6-0.2,1c0,0.3,0.1,0.7,0.2,1
		c0.1,0.3,0.3,0.6,0.5,0.8s0.5,0.4,0.8,0.5s0.6,0.2,1,0.2c0.5,0,1-0.1,1.4-0.4c0.4-0.3,0.7-0.7,0.9-1.3h-1.2
		c-0.1,0.1-0.2,0.3-0.4,0.4c-0.2,0.1-0.4,0.2-0.7,0.2c-0.4,0-0.7-0.1-0.9-0.3c-0.2-0.2-0.4-0.5-0.2-0.8H112z M108.4,69.9
		c0-0.1,0.1-0.2,0.1-0.3c0.1-0.1,0.1-0.2,0.2-0.3c0-0.1,0.2-0.2,0.3-0.3c0.1-0.1,0.3-0.1,0.5-0.1c0.3,0,0.5,0.1,0.7,0.3
		c0.1,0.1,0.2,0.4,0.4,0.7H108.4z"/>
	<polygon class="st0" points="109.6,67.2 111.1,65.5 109.7,65.5 108.7,67.2 	"/>
</g>
</svg>
